﻿{
    
    "Routes": [
        {
            "DownstreamPathTemplate": "/api/auth/{everything}",
            "DownstreamScheme": "https",
            "ServiceName": "auth",
            "UpstreamPathTemplate": "/auth/{everything}",
            "UpstreamHttpMethod": [],
            "SwaggerKey": "auth"
        }
    ]
}